{
  "prepare_queue": {
    "installed": [],
    "uninstalled": []
  },
  "config_munge": {
    "files": {}
  },
  "installed_plugins": {
    "ionic-plugin-keyboard": {
      "PACKAGE_NAME": "com.epitech.test"
    },
    "cordova-plugin-whitelist": {
      "PACKAGE_NAME": "com.epitech.test"
    },
    "cordova-plugin-device": {
      "PACKAGE_NAME": "com.epitech.test"
    },
    "cordova-plugin-splashscreen": {
      "PACKAGE_NAME": "com.epitech.test"
    },
    "cordova-plugin-ionic-webview": {
      "PACKAGE_NAME": "com.epitech.test"
    },
    "cordova-sqlite-storage": {
      "PACKAGE_NAME": "com.epitech.test"
    },
    "cordova-plugin-customurlscheme": {
      "URL_SCHEME": "com.epitech.test",
      "PACKAGE_NAME": "com.epitech.test"
    },
    "cordova-plugin-safariviewcontroller": {
      "PACKAGE_NAME": "com.epitech.test"
    },
    "cordova-plugin-inappbrowser": {
      "PACKAGE_NAME": "com.epitech.test"
    }
  },
  "dependent_plugins": {}
}